<svg xmlns="http://www.w3.org/2000/svg" xmlns:xlink="http://www.w3.org/1999/xlink" width="26" height="48" viewBox="0 0 26 48">
  <defs>
    <style>
      .cls-1 {
        fill-rule: evenodd;
        fill: url(#linear-gradient);
      }
    </style>
    <linearGradient id="linear-gradient" x1="525" y1="967" x2="525" y2="919" gradientUnits="userSpaceOnUse">
      <stop offset="0" stop-color="#f4575e"/>
      <stop offset="1" stop-color="#f44048"/>
    </linearGradient>
  </defs>
  <path id="ribbon" class="cls-1" d="M512,919h26v48l-12.6-9L512,967V919Z" transform="translate(-512 -919)"/>
</svg>
